{
  "project_info": {
    "project_number": "1043704223012",
    "firebase_url": "https://togetherpay.firebaseio.com",
    "project_id": "togetherpay",
    "storage_bucket": "togetherpay.appspot.com"
  },
  "client": [
    {
      "client_info": {
        "mobilesdk_app_id": "1:1043704223012:android:b54d3eb770d3d66d178fb1",
        "android_client_info": {
          "package_name": "com.example.togetherpay"
        }
      },
      "oauth_client": [
        {
          "client_id": "1043704223012-1ieh4f0l15uln36buqdlc2k3ns9v04mr.apps.googleusercontent.com",
          "client_type": 1,
          "android_info": {
            "package_name": "com.example.togetherpay",
            "certificate_hash": "d2b54088d34d9cf685aa6f3043831f6f03ef0a27"
          }
        },
        {
          "client_id": "1043704223012-ab1p6ibev7g48cgpjm8n7rs4qnvue58c.apps.googleusercontent.com",
          "client_type": 1,
          "android_info": {
            "package_name": "com.example.togetherpay",
            "certificate_hash": "307f07fd1bd3b3df2739d3809eb4f564868710ad"
          }
        },
        {
          "client_id": "1043704223012-jtsb471bvgiurrfjuv8nvg4lpesiqhb9.apps.googleusercontent.com",
          "client_type": 3
        }
      ],
      "api_key": [
        {
          "current_key": "AIzaSyCYiZlAithe24PheJ6oJkj-2YM0ipbxm1c"
        }
      ],
      "services": {
        "appinvite_service": {
          "other_platform_oauth_client": [
            {
              "client_id": "1043704223012-jtsb471bvgiurrfjuv8nvg4lpesiqhb9.apps.googleusercontent.com",
              "client_type": 3
            }
          ]
        }
      }
    },
    {
      "client_info": {
        "mobilesdk_app_id": "1:1043704223012:android:0303f81dad551fee178fb1",
        "android_client_info": {
          "package_name": "com.example.togetherpayjava"
        }
      },
      "oauth_client": [
        {
          "client_id": "1043704223012-furh1hc37rllibimvhbqth346ai3gqts.apps.googleusercontent.com",
          "client_type": 1,
          "android_info": {
            "package_name": "com.example.togetherpayjava",
            "certificate_hash": "d2b54088d34d9cf685aa6f3043831f6f03ef0a27"
          }
        },
        {
          "client_id": "1043704223012-jtsb471bvgiurrfjuv8nvg4lpesiqhb9.apps.googleusercontent.com",
          "client_type": 3
        }
      ],
      "api_key": [
        {
          "current_key": "AIzaSyCYiZlAithe24PheJ6oJkj-2YM0ipbxm1c"
        }
      ],
      "services": {
        "appinvite_service": {
          "other_platform_oauth_client": [
            {
              "client_id": "1043704223012-jtsb471bvgiurrfjuv8nvg4lpesiqhb9.apps.googleusercontent.com",
              "client_type": 3
            }
          ]
        }
      }
    }
  ],
  "configuration_version": "1"
}